<svg xmlns="http://www.w3.org/2000/svg" width="272.842" height="272.842" viewBox="0 0 272.842 272.842">
  <path id="Caminho_1" data-name="Caminho 1" d="M272.842,272.842C272.842,122.156,150.686,0,0,0V272.842Z" transform="translate(272.842 272.842) rotate(180)" fill="#69989d"/>
</svg>
