<svg id="Grupo_1" data-name="Grupo 1" xmlns="http://www.w3.org/2000/svg" width="38.946" height="37.446" viewBox="0 0 38.946 37.446">
  <path id="Caminho_236" data-name="Caminho 236" d="M28.845,25.6a3.245,3.245,0,1,0,3.245,3.245A3.244,3.244,0,0,0,28.845,25.6Z" transform="translate(-9.373 -10.123)" fill="#1c1c1c" fill-rule="evenodd"/>
  <path id="Caminho_237" data-name="Caminho 237" d="M33.691,20.364a3.221,3.221,0,0,0-1.851-1.851,5.392,5.392,0,0,0-1.807-.336c-1.027-.044-1.337-.057-3.936-.057s-2.91.013-3.936.057a5.392,5.392,0,0,0-1.807.336A3.221,3.221,0,0,0,18.5,20.364a5.392,5.392,0,0,0-.336,1.807c-.044,1.027-.057,1.337-.057,3.936s.013,2.91.057,3.936A5.392,5.392,0,0,0,18.5,31.85,3.221,3.221,0,0,0,20.354,33.7a5.392,5.392,0,0,0,1.807.336c1.027.044,1.337.057,3.936.057s2.91-.013,3.936-.057A5.392,5.392,0,0,0,31.84,33.7a3.221,3.221,0,0,0,1.851-1.851,5.392,5.392,0,0,0,.336-1.807c.044-1.027.057-1.337.057-3.936s-.013-2.91-.057-3.936A5.429,5.429,0,0,0,33.691,20.364ZM26.1,31.108a5,5,0,1,1,5-5A5,5,0,0,1,26.1,31.108Zm5.2-9.033a1.166,1.166,0,1,1,1.166-1.166A1.167,1.167,0,0,1,31.3,22.075Z" transform="translate(-6.63 -7.384)" fill="#1c1c1c" fill-rule="evenodd"/>
  <path id="Caminho_238" data-name="Caminho 238" d="M19.473,0C8.716,0,0,8.38,0,18.723S8.716,37.446,19.473,37.446s19.473-8.38,19.473-18.723S30.23,0,19.473,0Zm9.736,18.954c0,2.328-.013,2.663-.057,3.626a6.6,6.6,0,0,1-.45,2.273,4.562,4.562,0,0,1-1.122,1.658,4.783,4.783,0,0,1-1.724,1.079,7.322,7.322,0,0,1-2.364.433c-1.04.043-1.369.055-4.012.055s-2.973-.012-4.012-.055a7.357,7.357,0,0,1-2.364-.433,4.783,4.783,0,0,1-1.724-1.079,4.562,4.562,0,0,1-1.122-1.658,6.573,6.573,0,0,1-.45-2.273c-.044-1-.057-1.316-.057-3.858s.013-2.858.057-3.858a6.573,6.573,0,0,1,.45-2.273,4.562,4.562,0,0,1,1.122-1.658A4.783,4.783,0,0,1,13.1,9.855a7.322,7.322,0,0,1,2.364-.433c1.008-.043,1.35-.055,3.772-.055h.482c2.421,0,2.764.012,3.772.055a7.322,7.322,0,0,1,2.364.433,4.783,4.783,0,0,1,1.724,1.079A4.562,4.562,0,0,1,28.7,12.592a6.573,6.573,0,0,1,.45,2.273c.044.969.057,1.3.057,3.626Z" fill="#1c1c1c" fill-rule="evenodd"/>
</svg>
