<svg xmlns="http://www.w3.org/2000/svg" width="1422.259" height="757.357" viewBox="0 0 1422.259 757.357">
  <g id="Grupo_2" data-name="Grupo 2" transform="translate(1250.988 -85.623) rotate(90)">
    <path id="Caminho_1" data-name="Caminho 1" d="M51.628,100l-3.75-11H20.948l-3.5,11H-.052l23.8-70h20.4L68,100ZM25.8,74H42.764L34,48.3Zm99.7-44a23.835,23.835,0,0,1,17.4,7A22.981,22.981,0,0,1,150,54a22.981,22.981,0,0,1-7.1,17,23.835,23.835,0,0,1-17.4,7H115v22H99V30Zm0,33a7.939,7.939,0,0,0,6.1-2.6,9.733,9.733,0,0,0,0-12.8,7.939,7.939,0,0,0-6.1-2.6H115V63Zm71.128,37-3.75-11h-26.93l-3.5,11h-17.5l23.8-70h20.4L213,100ZM170.8,74h16.964L179,48.3Zm74.7-44a23.835,23.835,0,0,1,17.4,7A22.981,22.981,0,0,1,270,54a22.981,22.981,0,0,1-7.1,17,23.835,23.835,0,0,1-17.4,7H235v22H219V30Zm0,33a7.939,7.939,0,0,0,6.1-2.6,9.733,9.733,0,0,0,0-12.8,7.939,7.939,0,0,0-6.1-2.6H235V63ZM294,84.6h28V100H278V30h43.5V45.4H294V57h25V72.2H294Zm53,0h25V100H331V30h16Zm48,0h25V100H379V30h16ZM474.628,100l-3.75-11h-26.93l-3.5,11h-17.5l23.8-70h20.4L491,100ZM448.8,74h16.964L457,48.3ZM536,30h16v70H540L513,62v38H497V30h12l27,38Zm56,0a32.416,32.416,0,0,1,24.25,10.05Q626,50.1,626,65t-9.75,24.95A32.416,32.416,0,0,1,592,100H564V30Zm0,54.6q8.3,0,13.45-5.35T610.6,65q0-8.9-5.15-14.25T592,45.4H580V84.6ZM635,30h16v70H635Zm73.628,70-3.75-11h-26.93l-3.5,11h-17.5l23.8-70h20.4L725,100ZM682.8,74h16.964L691,48.3ZM733,75l-3-25V30h18V50l-3,25Zm12.7,23.6a9.416,9.416,0,1,1,2.8-6.7A9.142,9.142,0,0,1,745.7,98.6Z" transform="matrix(0.966, -0.259, 0.259, 0.966, 79.516, -5.298)" fill="none" stroke="#000" stroke-width="2" opacity="0.07"/>
    <path id="Caminho_2" data-name="Caminho 2" d="M51.628,100l-3.75-11H20.948l-3.5,11H-.052l23.8-70h20.4L68,100ZM25.8,74H42.764L34,48.3Zm99.7-44a23.835,23.835,0,0,1,17.4,7A22.981,22.981,0,0,1,150,54a22.981,22.981,0,0,1-7.1,17,23.835,23.835,0,0,1-17.4,7H115v22H99V30Zm0,33a7.939,7.939,0,0,0,6.1-2.6,9.733,9.733,0,0,0,0-12.8,7.939,7.939,0,0,0-6.1-2.6H115V63Zm71.128,37-3.75-11h-26.93l-3.5,11h-17.5l23.8-70h20.4L213,100ZM170.8,74h16.964L179,48.3Zm74.7-44a23.835,23.835,0,0,1,17.4,7A22.981,22.981,0,0,1,270,54a22.981,22.981,0,0,1-7.1,17,23.835,23.835,0,0,1-17.4,7H235v22H219V30Zm0,33a7.939,7.939,0,0,0,6.1-2.6,9.733,9.733,0,0,0,0-12.8,7.939,7.939,0,0,0-6.1-2.6H235V63ZM294,84.6h28V100H278V30h43.5V45.4H294V57h25V72.2H294Zm53,0h25V100H331V30h16Zm48,0h25V100H379V30h16ZM474.628,100l-3.75-11h-26.93l-3.5,11h-17.5l23.8-70h20.4L491,100ZM448.8,74h16.964L457,48.3ZM536,30h16v70H540L513,62v38H497V30h12l27,38Zm56,0a32.416,32.416,0,0,1,24.25,10.05Q626,50.1,626,65t-9.75,24.95A32.416,32.416,0,0,1,592,100H564V30Zm0,54.6q8.3,0,13.45-5.35T610.6,65q0-8.9-5.15-14.25T592,45.4H580V84.6ZM635,30h16v70H635Zm73.628,70-3.75-11h-26.93l-3.5,11h-17.5l23.8-70h20.4L725,100ZM682.8,74h16.964L691,48.3ZM733,75l-3-25V30h18V50l-3,25Zm12.7,23.6a9.416,9.416,0,1,1,2.8-6.7A9.142,9.142,0,0,1,745.7,98.6Z" transform="matrix(0.966, -0.259, 0.259, 0.966, 92.516, 119.702)" fill="none" stroke="#000" stroke-width="2" opacity="0.07"/>
    <path id="Caminho_3" data-name="Caminho 3" d="M51.628,100l-3.75-11H20.948l-3.5,11H-.052l23.8-70h20.4L68,100ZM25.8,74H42.764L34,48.3Zm99.7-44a23.835,23.835,0,0,1,17.4,7A22.981,22.981,0,0,1,150,54a22.981,22.981,0,0,1-7.1,17,23.835,23.835,0,0,1-17.4,7H115v22H99V30Zm0,33a7.939,7.939,0,0,0,6.1-2.6,9.733,9.733,0,0,0,0-12.8,7.939,7.939,0,0,0-6.1-2.6H115V63Zm71.128,37-3.75-11h-26.93l-3.5,11h-17.5l23.8-70h20.4L213,100ZM170.8,74h16.964L179,48.3Zm74.7-44a23.835,23.835,0,0,1,17.4,7A22.981,22.981,0,0,1,270,54a22.981,22.981,0,0,1-7.1,17,23.835,23.835,0,0,1-17.4,7H235v22H219V30Zm0,33a7.939,7.939,0,0,0,6.1-2.6,9.733,9.733,0,0,0,0-12.8,7.939,7.939,0,0,0-6.1-2.6H235V63ZM294,84.6h28V100H278V30h43.5V45.4H294V57h25V72.2H294Zm53,0h25V100H331V30h16Zm48,0h25V100H379V30h16ZM474.628,100l-3.75-11h-26.93l-3.5,11h-17.5l23.8-70h20.4L491,100ZM448.8,74h16.964L457,48.3ZM536,30h16v70H540L513,62v38H497V30h12l27,38Zm56,0a32.416,32.416,0,0,1,24.25,10.05Q626,50.1,626,65t-9.75,24.95A32.416,32.416,0,0,1,592,100H564V30Zm0,54.6q8.3,0,13.45-5.35T610.6,65q0-8.9-5.15-14.25T592,45.4H580V84.6ZM635,30h16v70H635Zm73.628,70-3.75-11h-26.93l-3.5,11h-17.5l23.8-70h20.4L725,100ZM682.8,74h16.964L691,48.3ZM733,75l-3-25V30h18V50l-3,25Zm12.7,23.6a9.416,9.416,0,1,1,2.8-6.7A9.142,9.142,0,0,1,745.7,98.6Z" transform="matrix(0.966, -0.259, 0.259, 0.966, 92.516, 245.702)" fill="none" stroke="#000" stroke-width="2" opacity="0.07"/>
    <path id="Caminho_4" data-name="Caminho 4" d="M51.628,100l-3.75-11H20.948l-3.5,11H-.052l23.8-70h20.4L68,100ZM25.8,74H42.764L34,48.3Zm99.7-44a23.835,23.835,0,0,1,17.4,7A22.981,22.981,0,0,1,150,54a22.981,22.981,0,0,1-7.1,17,23.835,23.835,0,0,1-17.4,7H115v22H99V30Zm0,33a7.939,7.939,0,0,0,6.1-2.6,9.733,9.733,0,0,0,0-12.8,7.939,7.939,0,0,0-6.1-2.6H115V63Zm71.128,37-3.75-11h-26.93l-3.5,11h-17.5l23.8-70h20.4L213,100ZM170.8,74h16.964L179,48.3Zm74.7-44a23.835,23.835,0,0,1,17.4,7A22.981,22.981,0,0,1,270,54a22.981,22.981,0,0,1-7.1,17,23.835,23.835,0,0,1-17.4,7H235v22H219V30Zm0,33a7.939,7.939,0,0,0,6.1-2.6,9.733,9.733,0,0,0,0-12.8,7.939,7.939,0,0,0-6.1-2.6H235V63ZM294,84.6h28V100H278V30h43.5V45.4H294V57h25V72.2H294Zm53,0h25V100H331V30h16Zm48,0h25V100H379V30h16ZM474.628,100l-3.75-11h-26.93l-3.5,11h-17.5l23.8-70h20.4L491,100ZM448.8,74h16.964L457,48.3ZM536,30h16v70H540L513,62v38H497V30h12l27,38Zm56,0a32.416,32.416,0,0,1,24.25,10.05Q626,50.1,626,65t-9.75,24.95A32.416,32.416,0,0,1,592,100H564V30Zm0,54.6q8.3,0,13.45-5.35T610.6,65q0-8.9-5.15-14.25T592,45.4H580V84.6ZM635,30h16v70H635Zm73.628,70-3.75-11h-26.93l-3.5,11h-17.5l23.8-70h20.4L725,100ZM682.8,74h16.964L691,48.3ZM733,75l-3-25V30h18V50l-3,25Zm12.7,23.6a9.416,9.416,0,1,1,2.8-6.7A9.142,9.142,0,0,1,745.7,98.6Z" transform="matrix(0.966, -0.259, 0.259, 0.966, 92.516, 502.702)" fill="none" stroke="#000" stroke-width="2" opacity="0.07"/>
    <path id="Caminho_5" data-name="Caminho 5" d="M51.628,100l-3.75-11H20.948l-3.5,11H-.052l23.8-70h20.4L68,100ZM25.8,74H42.764L34,48.3Zm99.7-44a23.835,23.835,0,0,1,17.4,7A22.981,22.981,0,0,1,150,54a22.981,22.981,0,0,1-7.1,17,23.835,23.835,0,0,1-17.4,7H115v22H99V30Zm0,33a7.939,7.939,0,0,0,6.1-2.6,9.733,9.733,0,0,0,0-12.8,7.939,7.939,0,0,0-6.1-2.6H115V63Zm71.128,37-3.75-11h-26.93l-3.5,11h-17.5l23.8-70h20.4L213,100ZM170.8,74h16.964L179,48.3Zm74.7-44a23.835,23.835,0,0,1,17.4,7A22.981,22.981,0,0,1,270,54a22.981,22.981,0,0,1-7.1,17,23.835,23.835,0,0,1-17.4,7H235v22H219V30Zm0,33a7.939,7.939,0,0,0,6.1-2.6,9.733,9.733,0,0,0,0-12.8,7.939,7.939,0,0,0-6.1-2.6H235V63ZM294,84.6h28V100H278V30h43.5V45.4H294V57h25V72.2H294Zm53,0h25V100H331V30h16Zm48,0h25V100H379V30h16ZM474.628,100l-3.75-11h-26.93l-3.5,11h-17.5l23.8-70h20.4L491,100ZM448.8,74h16.964L457,48.3ZM536,30h16v70H540L513,62v38H497V30h12l27,38Zm56,0a32.416,32.416,0,0,1,24.25,10.05Q626,50.1,626,65t-9.75,24.95A32.416,32.416,0,0,1,592,100H564V30Zm0,54.6q8.3,0,13.45-5.35T610.6,65q0-8.9-5.15-14.25T592,45.4H580V84.6ZM635,30h16v70H635Zm73.628,70-3.75-11h-26.93l-3.5,11h-17.5l23.8-70h20.4L725,100ZM682.8,74h16.964L691,48.3ZM733,75l-3-25V30h18V50l-3,25Zm12.7,23.6a9.416,9.416,0,1,1,2.8-6.7A9.142,9.142,0,0,1,745.7,98.6Z" transform="matrix(0.966, -0.259, 0.259, 0.966, 92.516, 758.702)" fill="none" stroke="#000" stroke-width="2" opacity="0.07"/>
    <path id="Caminho_6" data-name="Caminho 6" d="M51.628,100l-3.75-11H20.948l-3.5,11H-.052l23.8-70h20.4L68,100ZM25.8,74H42.764L34,48.3Zm99.7-44a23.835,23.835,0,0,1,17.4,7A22.981,22.981,0,0,1,150,54a22.981,22.981,0,0,1-7.1,17,23.835,23.835,0,0,1-17.4,7H115v22H99V30Zm0,33a7.939,7.939,0,0,0,6.1-2.6,9.733,9.733,0,0,0,0-12.8,7.939,7.939,0,0,0-6.1-2.6H115V63Zm71.128,37-3.75-11h-26.93l-3.5,11h-17.5l23.8-70h20.4L213,100ZM170.8,74h16.964L179,48.3Zm74.7-44a23.835,23.835,0,0,1,17.4,7A22.981,22.981,0,0,1,270,54a22.981,22.981,0,0,1-7.1,17,23.835,23.835,0,0,1-17.4,7H235v22H219V30Zm0,33a7.939,7.939,0,0,0,6.1-2.6,9.733,9.733,0,0,0,0-12.8,7.939,7.939,0,0,0-6.1-2.6H235V63ZM294,84.6h28V100H278V30h43.5V45.4H294V57h25V72.2H294Zm53,0h25V100H331V30h16Zm48,0h25V100H379V30h16ZM474.628,100l-3.75-11h-26.93l-3.5,11h-17.5l23.8-70h20.4L491,100ZM448.8,74h16.964L457,48.3ZM536,30h16v70H540L513,62v38H497V30h12l27,38Zm56,0a32.416,32.416,0,0,1,24.25,10.05Q626,50.1,626,65t-9.75,24.95A32.416,32.416,0,0,1,592,100H564V30Zm0,54.6q8.3,0,13.45-5.35T610.6,65q0-8.9-5.15-14.25T592,45.4H580V84.6ZM635,30h16v70H635Zm73.628,70-3.75-11h-26.93l-3.5,11h-17.5l23.8-70h20.4L725,100ZM682.8,74h16.964L691,48.3ZM733,75l-3-25V30h18V50l-3,25Zm12.7,23.6a9.416,9.416,0,1,1,2.8-6.7A9.142,9.142,0,0,1,745.7,98.6Z" transform="matrix(0.966, -0.259, 0.259, 0.966, 92.516, 1021.702)" fill="none" stroke="#000" stroke-width="2" opacity="0.07"/>
    <path id="Caminho_7" data-name="Caminho 7" d="M51.628,100l-3.75-11H20.948l-3.5,11H-.052l23.8-70h20.4L68,100ZM25.8,74H42.764L34,48.3Zm99.7-44a23.835,23.835,0,0,1,17.4,7A22.981,22.981,0,0,1,150,54a22.981,22.981,0,0,1-7.1,17,23.835,23.835,0,0,1-17.4,7H115v22H99V30Zm0,33a7.939,7.939,0,0,0,6.1-2.6,9.733,9.733,0,0,0,0-12.8,7.939,7.939,0,0,0-6.1-2.6H115V63Zm71.128,37-3.75-11h-26.93l-3.5,11h-17.5l23.8-70h20.4L213,100ZM170.8,74h16.964L179,48.3Zm74.7-44a23.835,23.835,0,0,1,17.4,7A22.981,22.981,0,0,1,270,54a22.981,22.981,0,0,1-7.1,17,23.835,23.835,0,0,1-17.4,7H235v22H219V30Zm0,33a7.939,7.939,0,0,0,6.1-2.6,9.733,9.733,0,0,0,0-12.8,7.939,7.939,0,0,0-6.1-2.6H235V63ZM294,84.6h28V100H278V30h43.5V45.4H294V57h25V72.2H294Zm53,0h25V100H331V30h16Zm48,0h25V100H379V30h16ZM474.628,100l-3.75-11h-26.93l-3.5,11h-17.5l23.8-70h20.4L491,100ZM448.8,74h16.964L457,48.3ZM536,30h16v70H540L513,62v38H497V30h12l27,38Zm56,0a32.416,32.416,0,0,1,24.25,10.05Q626,50.1,626,65t-9.75,24.95A32.416,32.416,0,0,1,592,100H564V30Zm0,54.6q8.3,0,13.45-5.35T610.6,65q0-8.9-5.15-14.25T592,45.4H580V84.6ZM635,30h16v70H635Zm73.628,70-3.75-11h-26.93l-3.5,11h-17.5l23.8-70h20.4L725,100ZM682.8,74h16.964L691,48.3ZM733,75l-3-25V30h18V50l-3,25Zm12.7,23.6a9.416,9.416,0,1,1,2.8-6.7A9.142,9.142,0,0,1,745.7,98.6Z" transform="matrix(0.966, -0.259, 0.259, 0.966, 92.516, 375.702)" fill="none" stroke="#000" stroke-width="2" opacity="0.07"/>
    <path id="Caminho_8" data-name="Caminho 8" d="M51.628,100l-3.75-11H20.948l-3.5,11H-.052l23.8-70h20.4L68,100ZM25.8,74H42.764L34,48.3Zm99.7-44a23.835,23.835,0,0,1,17.4,7A22.981,22.981,0,0,1,150,54a22.981,22.981,0,0,1-7.1,17,23.835,23.835,0,0,1-17.4,7H115v22H99V30Zm0,33a7.939,7.939,0,0,0,6.1-2.6,9.733,9.733,0,0,0,0-12.8,7.939,7.939,0,0,0-6.1-2.6H115V63Zm71.128,37-3.75-11h-26.93l-3.5,11h-17.5l23.8-70h20.4L213,100ZM170.8,74h16.964L179,48.3Zm74.7-44a23.835,23.835,0,0,1,17.4,7A22.981,22.981,0,0,1,270,54a22.981,22.981,0,0,1-7.1,17,23.835,23.835,0,0,1-17.4,7H235v22H219V30Zm0,33a7.939,7.939,0,0,0,6.1-2.6,9.733,9.733,0,0,0,0-12.8,7.939,7.939,0,0,0-6.1-2.6H235V63ZM294,84.6h28V100H278V30h43.5V45.4H294V57h25V72.2H294Zm53,0h25V100H331V30h16Zm48,0h25V100H379V30h16ZM474.628,100l-3.75-11h-26.93l-3.5,11h-17.5l23.8-70h20.4L491,100ZM448.8,74h16.964L457,48.3ZM536,30h16v70H540L513,62v38H497V30h12l27,38Zm56,0a32.416,32.416,0,0,1,24.25,10.05Q626,50.1,626,65t-9.75,24.95A32.416,32.416,0,0,1,592,100H564V30Zm0,54.6q8.3,0,13.45-5.35T610.6,65q0-8.9-5.15-14.25T592,45.4H580V84.6ZM635,30h16v70H635Zm73.628,70-3.75-11h-26.93l-3.5,11h-17.5l23.8-70h20.4L725,100ZM682.8,74h16.964L691,48.3ZM733,75l-3-25V30h18V50l-3,25Zm12.7,23.6a9.416,9.416,0,1,1,2.8-6.7A9.142,9.142,0,0,1,745.7,98.6Z" transform="matrix(0.966, -0.259, 0.259, 0.966, 92.516, 632.702)" fill="none" stroke="#000" stroke-width="2" opacity="0.07"/>
    <path id="Caminho_9" data-name="Caminho 9" d="M51.628,100l-3.75-11H20.948l-3.5,11H-.052l23.8-70h20.4L68,100ZM25.8,74H42.764L34,48.3Zm99.7-44a23.835,23.835,0,0,1,17.4,7A22.981,22.981,0,0,1,150,54a22.981,22.981,0,0,1-7.1,17,23.835,23.835,0,0,1-17.4,7H115v22H99V30Zm0,33a7.939,7.939,0,0,0,6.1-2.6,9.733,9.733,0,0,0,0-12.8,7.939,7.939,0,0,0-6.1-2.6H115V63Zm71.128,37-3.75-11h-26.93l-3.5,11h-17.5l23.8-70h20.4L213,100ZM170.8,74h16.964L179,48.3Zm74.7-44a23.835,23.835,0,0,1,17.4,7A22.981,22.981,0,0,1,270,54a22.981,22.981,0,0,1-7.1,17,23.835,23.835,0,0,1-17.4,7H235v22H219V30Zm0,33a7.939,7.939,0,0,0,6.1-2.6,9.733,9.733,0,0,0,0-12.8,7.939,7.939,0,0,0-6.1-2.6H235V63ZM294,84.6h28V100H278V30h43.5V45.4H294V57h25V72.2H294Zm53,0h25V100H331V30h16Zm48,0h25V100H379V30h16ZM474.628,100l-3.75-11h-26.93l-3.5,11h-17.5l23.8-70h20.4L491,100ZM448.8,74h16.964L457,48.3ZM536,30h16v70H540L513,62v38H497V30h12l27,38Zm56,0a32.416,32.416,0,0,1,24.25,10.05Q626,50.1,626,65t-9.75,24.95A32.416,32.416,0,0,1,592,100H564V30Zm0,54.6q8.3,0,13.45-5.35T610.6,65q0-8.9-5.15-14.25T592,45.4H580V84.6ZM635,30h16v70H635Zm73.628,70-3.75-11h-26.93l-3.5,11h-17.5l23.8-70h20.4L725,100ZM682.8,74h16.964L691,48.3ZM733,75l-3-25V30h18V50l-3,25Zm12.7,23.6a9.416,9.416,0,1,1,2.8-6.7A9.142,9.142,0,0,1,745.7,98.6Z" transform="matrix(0.966, -0.259, 0.259, 0.966, 92.516, 888.702)" fill="none" stroke="#000" stroke-width="2" opacity="0.07"/>
    <path id="Caminho_10" data-name="Caminho 10" d="M51.628,100l-3.75-11H20.948l-3.5,11H-.052l23.8-70h20.4L68,100ZM25.8,74H42.764L34,48.3Zm99.7-44a23.835,23.835,0,0,1,17.4,7A22.981,22.981,0,0,1,150,54a22.981,22.981,0,0,1-7.1,17,23.835,23.835,0,0,1-17.4,7H115v22H99V30Zm0,33a7.939,7.939,0,0,0,6.1-2.6,9.733,9.733,0,0,0,0-12.8,7.939,7.939,0,0,0-6.1-2.6H115V63Zm71.128,37-3.75-11h-26.93l-3.5,11h-17.5l23.8-70h20.4L213,100ZM170.8,74h16.964L179,48.3Zm74.7-44a23.835,23.835,0,0,1,17.4,7A22.981,22.981,0,0,1,270,54a22.981,22.981,0,0,1-7.1,17,23.835,23.835,0,0,1-17.4,7H235v22H219V30Zm0,33a7.939,7.939,0,0,0,6.1-2.6,9.733,9.733,0,0,0,0-12.8,7.939,7.939,0,0,0-6.1-2.6H235V63ZM294,84.6h28V100H278V30h43.5V45.4H294V57h25V72.2H294Zm53,0h25V100H331V30h16Zm48,0h25V100H379V30h16ZM474.628,100l-3.75-11h-26.93l-3.5,11h-17.5l23.8-70h20.4L491,100ZM448.8,74h16.964L457,48.3ZM536,30h16v70H540L513,62v38H497V30h12l27,38Zm56,0a32.416,32.416,0,0,1,24.25,10.05Q626,50.1,626,65t-9.75,24.95A32.416,32.416,0,0,1,592,100H564V30Zm0,54.6q8.3,0,13.45-5.35T610.6,65q0-8.9-5.15-14.25T592,45.4H580V84.6ZM635,30h16v70H635Zm73.628,70-3.75-11h-26.93l-3.5,11h-17.5l23.8-70h20.4L725,100ZM682.8,74h16.964L691,48.3ZM733,75l-3-25V30h18V50l-3,25Zm12.7,23.6a9.416,9.416,0,1,1,2.8-6.7A9.142,9.142,0,0,1,745.7,98.6Z" transform="matrix(0.966, -0.259, 0.259, 0.966, 92.516, 1151.702)" fill="none" stroke="#000" stroke-width="2" opacity="0.07"/>
  </g>
</svg>
